%YAML 1.1
%TAG !u! tag:unity3d.com,2011:
--- !u!114 &11400000
MonoBehaviour:
  m_ObjectHideFlags: 0
  m_CorrespondingSourceObject: {fileID: 0}
  m_PrefabInstance: {fileID: 0}
  m_PrefabAsset: {fileID: 0}
  m_GameObject: {fileID: 0}
  m_Enabled: 1
  m_EditorHideFlags: 0
  m_Script: {fileID: 11500000, guid: e82363993ab20694ab5f341820017dfc, type: 3}
  m_Name: ConIdlSenCabPis
  m_EditorClassIdentifier: 
  Placeables:
  - id: 1
    name: Conveyor
    placeable: {fileID: 2616174401998253407, guid: 51850a8a0c389e54aa6aa5cafbc5282e,
      type: 3}
  - id: 2
    name: IdleBlock
    placeable: {fileID: 6715238639828339513, guid: cc4da436ecdd9c44796ecf10a636c0c3,
      type: 3}
  - id: 3
    name: Sensor
    placeable: {fileID: 1751931080, guid: 21a877547b415034fb53e0ff21f2fdfb, type: 3}
  - id: 4
    name: Cable
    placeable: {fileID: 8698239900545574548, guid: 4497a6466d1053643b428752ebe3fecb,
      type: 3}
  - id: 5
    name: Piston
    placeable: {fileID: 7689173422474096020, guid: f3f848bf5bf759c42a85318a7c7da811,
      type: 3}
