%YAML 1.1
%TAG !u! tag:unity3d.com,2011:
--- !u!114 &11400000
MonoBehaviour:
  m_ObjectHideFlags: 0
  m_CorrespondingSourceObject: {fileID: 0}
  m_PrefabInstance: {fileID: 0}
  m_PrefabAsset: {fileID: 0}
  m_GameObject: {fileID: 0}
  m_Enabled: 1
  m_EditorHideFlags: 0
  m_Script: {fileID: 11500000, guid: e82363993ab20694ab5f341820017dfc, type: 3}
  m_Name: ConIdl
  m_EditorClassIdentifier: 
  Placeables:
  - id: 1
    name: Conveyor
    placeable: {fileID: 2616174401998253407, guid: 51850a8a0c389e54aa6aa5cafbc5282e,
      type: 3}
  - id: 2
    name: IdleBlock
    placeable: {fileID: 6715238639828339513, guid: cc4da436ecdd9c44796ecf10a636c0c3,
      type: 3}
