%YAML 1.1
%TAG !u! tag:unity3d.com,2011:
--- !u!1001 &7919481921362391913
PrefabInstance:
  m_ObjectHideFlags: 0
  serializedVersion: 2
  m_Modification:
    m_TransformParent: {fileID: 0}
    m_Modifications:
    - target: {fileID: 6962639095292437339, guid: d9141d6f68633734b8658354128edd42,
        type: 3}
      propertyPath: m_Name
      value: Rotator Left
      objectReference: {fileID: 0}
    - target: {fileID: 6962639095292437339, guid: d9141d6f68633734b8658354128edd42,
        type: 3}
      propertyPath: m_TagString
      value: RotatorLeft
      objectReference: {fileID: 0}
    - target: {fileID: 6675097480300837577, guid: d9141d6f68633734b8658354128edd42,
        type: 3}
      propertyPath: LevelObject
      value: 0
      objectReference: {fileID: 0}
    - target: {fileID: 2697028074573541776, guid: d9141d6f68633734b8658354128edd42,
        type: 3}
      propertyPath: m_LocalPosition.x
      value: 4
      objectReference: {fileID: 0}
    - target: {fileID: 2697028074573541776, guid: d9141d6f68633734b8658354128edd42,
        type: 3}
      propertyPath: m_LocalPosition.y
      value: 0
      objectReference: {fileID: 0}
    - target: {fileID: 2697028074573541776, guid: d9141d6f68633734b8658354128edd42,
        type: 3}
      propertyPath: m_LocalPosition.z
      value: -3
      objectReference: {fileID: 0}
    - target: {fileID: 2697028074573541776, guid: d9141d6f68633734b8658354128edd42,
        type: 3}
      propertyPath: m_LocalRotation.x
      value: 0
      objectReference: {fileID: 0}
    - target: {fileID: 2697028074573541776, guid: d9141d6f68633734b8658354128edd42,
        type: 3}
      propertyPath: m_LocalRotation.y
      value: 0
      objectReference: {fileID: 0}
    - target: {fileID: 2697028074573541776, guid: d9141d6f68633734b8658354128edd42,
        type: 3}
      propertyPath: m_LocalRotation.z
      value: 0
      objectReference: {fileID: 0}
    - target: {fileID: 2697028074573541776, guid: d9141d6f68633734b8658354128edd42,
        type: 3}
      propertyPath: m_LocalRotation.w
      value: 1
      objectReference: {fileID: 0}
    - target: {fileID: 2697028074573541776, guid: d9141d6f68633734b8658354128edd42,
        type: 3}
      propertyPath: m_RootOrder
      value: 0
      objectReference: {fileID: 0}
    - target: {fileID: 2697028074573541776, guid: d9141d6f68633734b8658354128edd42,
        type: 3}
      propertyPath: m_LocalEulerAnglesHint.x
      value: 0
      objectReference: {fileID: 0}
    - target: {fileID: 2697028074573541776, guid: d9141d6f68633734b8658354128edd42,
        type: 3}
      propertyPath: m_LocalEulerAnglesHint.y
      value: 0
      objectReference: {fileID: 0}
    - target: {fileID: 2697028074573541776, guid: d9141d6f68633734b8658354128edd42,
        type: 3}
      propertyPath: m_LocalEulerAnglesHint.z
      value: 0
      objectReference: {fileID: 0}
    - target: {fileID: 3779380973291992280, guid: d9141d6f68633734b8658354128edd42,
        type: 3}
      propertyPath: m_text
      value: ===>
      objectReference: {fileID: 0}
    - target: {fileID: 4602661901751130783, guid: d9141d6f68633734b8658354128edd42,
        type: 3}
      propertyPath: m_text
      value: <===
      objectReference: {fileID: 0}
    - target: {fileID: 6384481698400676682, guid: d9141d6f68633734b8658354128edd42,
        type: 3}
      propertyPath: m_LocalRotation.y
      value: -0.7071068
      objectReference: {fileID: 0}
    - target: {fileID: 6384481698400676682, guid: d9141d6f68633734b8658354128edd42,
        type: 3}
      propertyPath: m_LocalEulerAnglesHint.y
      value: -90
      objectReference: {fileID: 0}
    m_RemovedComponents: []
  m_SourcePrefab: {fileID: 100100000, guid: d9141d6f68633734b8658354128edd42, type: 3}
