# ProBuilder 4.0.4
# https://unity3d.com/unity/features/worldbuilding/probuilder
# 05.04.2019 00:54:06

mtllib ./SensorModel.mtl
o SensorModel

g SensorModel
v -2.95 1.7 -0.2
v -3.175 1.7 -0.2
v -2.95 1.7 0
v -3.175 1.7 2.682209E-08
v -2.725 1.7 -0.2000001
v -2.725 1.7 -2.682209E-08
v -2.725 1.7 0.2
v -2.95 1.7 0.2
v -3.175 1.7 0.2000001
v -2.5 1.5 -5.364418E-08
v -2.5 1.7 -5.364418E-08
v -2.5 1.7 -0.2000001
v -2.5 1.5 -0.2000001
v -2.725 1.5 -0.2000001
v -2.725 1.3 -2.682209E-08
v -2.725 1.3 -0.2000001
v -2.5 1.3 -5.364418E-08
v -2.5 1.3 -0.2000001
v -2.725 1.3 0.2
v -2.725 1.5 0.2
v -2.5 1.5 0.2
v -2.5 1.3 0.2
v -2.5 1.7 0.2
v -2.95 1.3 -0.2
v -2.95 1.3 0
v -3.175 1.3 -0.2
v -3.175 1.3 2.682209E-08
v -3.175 1.3 0.2000001
v -2.95 1.3 0.2
v -3.175 1.5 0.2000001
v -2.95 1.5 0.2
v -2.95 1.5 -0.2
v -3.175 1.5 -0.2
v -3.175 1.7 0.4000001
v -3.175 1.9 0.4000001
v -3.175 1.9 0.2000001
v -3.175 1.1 -0.4
v -3.175 1.1 -0.2
v -3.175 1.5 0.4000001
v -3.175 1.3 0.4000001
v -3.175 1.9 2.682209E-08
v -3.175 1.9 -0.2
v -3.175 1.9 -0.4
v -3.175 1.1 2.682209E-08
v -3.175 1.7 -0.4
v -3.175 1.5 -0.4
v -3.175 1.3 -0.4
v -3.175 1.1 0.2000001
v -3.175 1.1 0.4000001
v -3.4 1.1 5.364418E-08
v -3.4 1.1 -0.09999996
v -3.4 1.2 -0.09999996
v -3.4 1.2 5.364418E-08
v -3.4 1.1 -0.2
v -3.4 1.2 -0.2
v -3.355 1.3 -0.09999997
v -3.355 1.2 -0.09999997
v -3.355 1.3 4.827976E-08
v -3.355 1.2 4.827976E-08
v -3.4 1.1 -0.3
v -3.4 1.2 -0.3
v -3.4 1.1 -0.4
v -3.4 1.2 -0.4
v -3.4 1.3 -0.4
v -3.4 1.3 -0.3
v -3.355 1.2 -0.2
v -3.355 1.2 -0.3
v -3.355 1.3 -0.2
v -3.355 1.3 -0.3
v -3.4 1.4 -0.4
v -3.4 1.4 -0.3
v -3.4 1.5 -0.4
v -3.4 1.5 -0.3
v -3.355 1.4 -0.2
v -3.355 1.4 -0.3
v -3.4 1.3 5.364418E-08
v -3.4 1.3 -0.09999996
v -3.4 1.4 -0.09999996
v -3.4 1.4 5.364418E-08
v -3.4 1.3 -0.2
v -3.4 1.4 -0.2
v -3.4 1.5 -0.2
v -3.4 1.5 -0.09999996
v -3.355 1.4 -0.09999997
v -3.355 1.5 4.827976E-08
v -3.355 1.5 -0.09999997
v -3.355 1.6 -0.09999997
v -3.355 1.6 4.827976E-08
v -3.4 1.6 -0.2
v -3.4 1.6 -0.09999996
v -3.4 1.7 -0.2
v -3.4 1.7 -0.09999996
v -3.4 1.7 5.364418E-08
v -3.4 1.6 5.364418E-08
v -3.355 1.5 -0.2
v -3.355 1.5 -0.3
v -3.4 1.6 -0.4
v -3.4 1.6 -0.3
v -3.4 1.7 -0.4
v -3.4 1.7 -0.3
v -3.355 1.6 -0.2
v -3.355 1.6 -0.3
v -3.355 1.7 -0.2
v -3.355 1.7 -0.3
v -3.355 1.8 -0.3
v -3.355 1.8 -0.2
v -3.4 1.8 -0.4
v -3.4 1.8 -0.3
v -3.4 1.9 -0.4
v -3.4 1.9 -0.3
v -3.4 1.9 -0.2
v -3.4 1.8 -0.2
v -3.355 1.7 4.827976E-08
v -3.355 1.8 4.827976E-08
v -3.355 1.7 -0.09999997
v -3.355 1.8 -0.09999997
v -3.4 1.9 -0.09999996
v -3.4 1.8 -0.09999996
v -3.4 1.9 5.364418E-08
v -3.4 1.8 5.364418E-08
v -3.4 1.5 0.4000001
v -3.4 1.5 0.3000001
v -3.4 1.6 0.3000001
v -3.4 1.6 0.4000001
v -3.355 1.5 0.3000001
v -3.355 1.5 0.2000001
v -3.355 1.6 0.2000001
v -3.355 1.6 0.3000001
v -3.4 1.7 0.3000001
v -3.4 1.7 0.4000001
v -3.4 1.5 0.2000001
v -3.4 1.5 0.1000001
v -3.4 1.6 0.1000001
v -3.4 1.6 0.2000001
v -3.355 1.5 0.1000001
v -3.355 1.6 0.1000001
v -3.4 1.7 0.1000001
v -3.4 1.7 0.2000001
v -3.355 1.7 0.2000001
v -3.355 1.8 0.2000001
v -3.355 1.7 0.1000001
v -3.355 1.8 0.1000001
v -3.4 1.9 0.1000001
v -3.4 1.8 0.1000001
v -3.4 1.9 0.2000001
v -3.4 1.8 0.2000001
v -3.4 1.8 0.3000001
v -3.4 1.8 0.4000001
v -3.355 1.7 0.3000001
v -3.355 1.8 0.3000001
v -3.4 1.9 0.3000001
v -3.4 1.9 0.4000001
v -3.4 1.1 0.4000001
v -3.4 1.1 0.3000001
v -3.4 1.2 0.3000001
v -3.4 1.2 0.4000001
v -3.4 1.1 0.2000001
v -3.4 1.2 0.2000001
v -3.355 1.2 0.2000001
v -3.355 1.2 0.3000001
v -3.4 1.3 0.3000001
v -3.4 1.3 0.4000001
v -3.4 1.1 0.1000001
v -3.4 1.2 0.1000001
v -3.355 1.3 0.1000001
v -3.355 1.2 0.1000001
v -3.4 1.3 0.2000001
v -3.4 1.3 0.1000001
v -3.4 1.4 0.1000001
v -3.4 1.4 0.2000001
v -3.355 1.4 4.827976E-08
v -3.355 1.4 0.1000001
v -3.4 1.4 0.3000001
v -3.4 1.4 0.4000001
v -3.355 1.3 0.3000001
v -3.355 1.3 0.2000001
v -3.355 1.4 0.2000001
v -3.355 1.4 0.3000001

vt 0 0.5
vt 0.25 0.5
vt 0.25 0.25
vt 0 0.25
vt 0.5 0.5
vt 0.5 0.25
vt 0 1
vt 0.25 1
vt 0.25 0.75
vt 0 0.75
vt 0.5 1
vt 0.5 0.75
vt 0.75 1
vt 0.75 0.75
vt 1 1
vt 1 0.75
vt 1 0.5
vt 0.75 0.5
vt 0.75 0.25
vt 1 0.25
vt 0.5 0
vt 0.25 0
vt 0 0
vt 1 0
vt 0.75 0
vt -0.5 0.25
vt -0.5 0.5
vt -0.25 0.25
vt -0.25 0.5
vt 0.5 -0.5
vt 0.25 -0.5
vt 0.25 -0.25
vt -0.5 0
vt -0.25 0
vt -0.5 -0.25
vt -0.25 -0.25
vt 0 -0.5
vt 0 -0.25
vt 0.5 -0.25
vt -0.25 -0.5
vt -0.5 -0.5
vt 0.375 0
vt 0.375 0.125
vt 0.5 0.125
vt 0.25 0.125
vt 0.375 0.25
vt 0.125 0
vt 0.125 0.125
vt 0 0.125
vt 0.125 0.25
vt 0 0.375
vt 0.125 0.375
vt 0.125 0.5
vt 0.25 0.375
vt 0.375 0.375
vt 0.5 0.375
vt 0.375 0.5
vt 0.375 0.625
vt 0.5 0.625
vt 0.25 0.625
vt 0.375 0.75
vt 0 0.625
vt 0.125 0.625
vt 0.125 0.75
vt 0.125 0.875
vt 0.25 0.875
vt 0 0.875
vt 0.125 1
vt 0.5 0.875
vt 0.375 0.875
vt 0.375 1
vt 0.875 0.5
vt 0.875 0.625
vt 1 0.625
vt 0.75 0.625
vt 0.875 0.75
vt 0.625 0.5
vt 0.625 0.625
vt 0.625 0.75
vt 0.75 0.875
vt 0.625 0.875
vt 0.625 1
vt 0.875 0.875
vt 1 0.875
vt 0.875 1
vt 0.875 0
vt 0.875 0.125
vt 1 0.125
vt 0.75 0.125
vt 0.875 0.25
vt 0.625 0
vt 0.625 0.125
vt 0.625 0.25
vt 0.625 0.375
vt 0.75 0.375
vt 0.875 0.375
vt 1 0.375
vt -0.5 0.375
vt -0.45 0.25
vt -0.45 0.375
vt -0.375 0.5
vt -0.375 0.45
vt -0.25 0.45
vt -0.5 0.125
vt -0.45 0.125
vt 0.45 0.25
vt 0.45 0.125
vt -0.45 0
vt 0.45 0
vt -0.5 -0.125
vt -0.45 -0.125
vt 0.5 -0.125
vt 0.45 -0.125
vt -0.45 -0.25
vt 0.45 -0.25
vt 0.25 0.45
vt 0.375 0.45
vt -0.5 -0.375
vt -0.45 -0.375
vt 0.125 0.45
vt -0.125 0.5
vt -0.125 0.45
vt 0 0.45
vt 0.45 0.375
vt 0.5 -0.375
vt 0.45 -0.375

vn 0 0 0
vn 0 0.8 0
vn 0.9000001 0 -1.072884E-07
vn 0 -0.8 0
vn 9.536743E-08 0 0.8000001
vn -9.536743E-08 0 -0.8000001
vn 0.45 0 -5.364418E-08
vn -0.9000001 0 1.072884E-07

g SensorModel_0
usemtl Metal
f 117/42/2 42/3/2 111/22/2
f 42/3/2 117/42/2 41/6/2
f 117/42/2 119/21/2 41/6/2
f 110/47/2 43/4/2 109/23/2
f 43/4/2 110/47/2 42/3/2
f 110/47/2 111/22/2 42/3/2
f 151/86/2 36/19/2 145/25/2
f 36/19/2 151/86/2 35/20/2
f 151/86/2 152/24/2 35/20/2
f 143/91/2 41/6/2 119/21/2
f 41/6/2 143/91/2 36/19/2
f 143/91/2 145/25/2 36/19/2
f 38/9/4 54/8/4 60/68/4
f 38/9/4 60/68/4 37/10/4
f 62/7/4 37/10/4 60/68/4
f 44/12/4 50/11/4 51/71/4
f 44/12/4 51/71/4 38/9/4
f 54/8/4 38/9/4 51/71/4
f 48/14/4 157/13/4 163/82/4
f 48/14/4 163/82/4 44/12/4
f 50/11/4 44/12/4 163/82/4
f 49/16/4 153/15/4 154/85/4
f 49/16/4 154/85/4 48/14/4
f 157/13/4 48/14/4 154/85/4
f 162/4/5 156/49/5 40/3/5
f 156/49/5 49/22/5 40/3/5
f 156/49/5 153/23/5 49/22/5
f 121/1/5 174/51/5 39/2/5
f 174/51/5 40/3/5 39/2/5
f 174/51/5 162/4/5 40/3/5
f 130/10/5 124/62/5 34/9/5
f 124/62/5 39/2/5 34/9/5
f 124/62/5 121/1/5 39/2/5
f 152/7/5 148/67/5 35/8/5
f 148/67/5 34/9/5 35/8/5
f 148/67/5 130/10/5 34/9/5
f 46/18/6 72/17/6 97/74/6
f 45/14/6 46/18/6 97/74/6
f 45/14/6 97/74/6 99/16/6
f 45/14/6 99/16/6 107/84/6
f 43/13/6 45/14/6 107/84/6
f 43/13/6 107/84/6 109/15/6
f 37/25/6 62/24/6 63/88/6
f 47/19/6 37/25/6 63/88/6
f 47/19/6 63/88/6 64/20/6
f 47/19/6 64/20/6 70/97/6
f 46/18/6 47/19/6 70/97/6
f 46/18/6 70/97/6 72/17/6
f 105/65/8 104/64/8 103/9/8
f 105/65/8 103/9/8 106/66/8
f 104/64/8 102/63/8 101/60/8
f 104/64/8 101/60/8 103/9/8
f 102/63/8 96/53/8 95/2/8
f 102/63/8 95/2/8 101/60/8
f 96/53/8 75/52/8 74/54/8
f 96/53/8 74/54/8 95/2/8
f 75/52/8 69/50/8 68/3/8
f 75/52/8 68/3/8 74/54/8
f 69/50/8 67/48/8 66/45/8
f 69/50/8 66/45/8 68/3/8
f 68/3/8 66/45/8 57/43/8
f 68/3/8 57/43/8 56/46/8
f 56/46/8 57/43/8 59/44/8
f 56/46/8 59/44/8 58/6/8
f 58/6/8 59/44/8 166/92/8
f 58/6/8 166/92/8 165/93/8
f 106/66/8 103/9/8 115/61/8
f 106/66/8 115/61/8 116/70/8
f 116/70/8 115/61/8 113/12/8
f 116/70/8 113/12/8 114/69/8
f 114/69/8 113/12/8 141/79/8
f 114/69/8 141/79/8 142/81/8
f 142/81/8 141/79/8 139/14/8
f 142/81/8 139/14/8 140/80/8
f 140/80/8 139/14/8 149/76/8
f 140/80/8 149/76/8 150/83/8
f 139/14/8 127/75/8 128/73/8
f 139/14/8 128/73/8 149/76/8
f 127/75/8 126/18/8 125/72/8
f 127/75/8 125/72/8 128/73/8
f 126/18/8 177/95/8 178/96/8
f 126/18/8 178/96/8 125/72/8
f 177/95/8 176/19/8 175/90/8
f 177/95/8 175/90/8 178/96/8
f 176/19/8 159/89/8 160/87/8
f 176/19/8 160/87/8 175/90/8
f 165/93/8 166/92/8 159/89/8
f 165/93/8 159/89/8 176/19/8
f 87/58/8 86/57/8 85/5/8
f 87/58/8 85/5/8 88/59/8
f 88/59/8 85/5/8 135/77/8
f 88/59/8 135/77/8 136/78/8
f 85/5/8 171/56/8 172/94/8
f 85/5/8 172/94/8 135/77/8
f 86/57/8 84/55/8 171/56/8
f 86/57/8 171/56/8 85/5/8
f 2/3/1 1/2/1 1/1/1
f 1/1/1 2/4/1 2/3/1
f 4/6/2 3/5/2 1/2/2
f 1/2/2 2/3/2 4/6/2
f 5/9/1 5/8/1 5/7/1
f 5/7/1 5/10/1 5/9/1
f 6/12/1 6/11/1 5/8/1
f 5/8/1 5/9/1 6/12/1
f 3/5/2 6/12/2 5/9/2
f 5/9/2 1/2/2 3/5/2
f 1/2/1 5/9/1 5/10/1
f 5/10/1 1/1/1 1/2/1
f 7/14/1 7/13/1 6/11/1
f 6/11/1 6/12/1 7/14/1
f 7/16/1 7/15/1 7/13/1
f 7/13/1 7/14/1 7/16/1
f 8/17/1 7/16/1 7/14/1
f 7/14/1 8/18/1 8/17/1
f 8/18/2 7/14/2 6/12/2
f 6/12/2 3/5/2 8/18/2
f 9/19/2 8/18/2 3/5/2
f 3/5/2 4/6/2 9/19/2
f 9/20/1 8/17/1 8/18/1
f 8/18/1 9/19/1 9/20/1
f 12/3/3 11/6/3 10/5/3
f 10/5/3 13/2/3 12/3/3
f 5/22/1 6/21/1 6/6/1
f 6/6/1 5/3/1 5/22/1
f 5/23/1 5/22/1 5/3/1
f 5/3/1 5/4/1 5/23/1
f 5/4/1 5/3/1 14/2/1
f 14/2/1 14/1/1 5/4/1
f 16/9/1 15/12/1 15/11/1
f 15/11/1 16/8/1 16/9/1
f 13/2/3 10/5/3 17/12/3
f 17/12/3 18/9/3 13/2/3
f 14/1/1 14/2/1 16/9/1
f 16/9/1 16/10/1 14/1/1
f 16/10/1 16/9/1 16/8/1
f 16/8/1 16/7/1 16/10/1
f 19/14/1 19/16/1 19/15/1
f 19/15/1 19/13/1 19/14/1
f 20/18/1 20/17/1 19/16/1
f 19/16/1 19/14/1 20/18/1
f 10/5/3 21/18/3 22/14/3
f 22/14/3 17/12/3 10/5/3
f 15/12/1 19/14/1 19/13/1
f 19/13/1 15/11/1 15/12/1
f 7/19/1 7/20/1 20/17/1
f 20/17/1 20/18/1 7/19/1
f 7/25/1 7/24/1 7/20/1
f 7/20/1 7/19/1 7/25/1
f 6/21/1 7/25/1 7/19/1
f 7/19/1 6/6/1 6/21/1
f 11/6/3 23/19/3 21/18/3
f 21/18/3 10/5/3 11/6/3
f 16/3/1 16/4/1 16/23/1
f 16/23/1 16/22/1 16/3/1
f 24/2/1 24/1/1 16/4/1
f 16/4/1 16/3/1 24/2/1
f 25/5/4 24/2/4 16/3/4
f 16/3/4 15/6/4 25/5/4
f 15/6/1 16/3/1 16/22/1
f 16/22/1 15/21/1 15/6/1
f 26/9/1 26/10/1 24/1/1
f 24/1/1 24/2/1 26/9/1
f 27/12/4 26/9/4 24/2/4
f 24/2/4 25/5/4 27/12/4
f 28/14/4 27/12/4 25/5/4
f 25/5/4 29/18/4 28/14/4
f 28/16/1 28/14/1 29/18/1
f 29/18/1 29/17/1 28/16/1
f 19/19/1 15/6/1 15/21/1
f 15/21/1 19/25/1 19/19/1
f 29/18/4 25/5/4 15/6/4
f 15/6/4 19/19/4 29/18/4
f 29/17/1 29/18/1 19/19/1
f 19/19/1 19/20/1 29/17/1
f 19/20/1 19/19/1 19/25/1
f 19/25/1 19/24/1 19/20/1
f 31/5/5 30/2/5 28/3/5
f 28/3/5 29/6/5 31/5/5
f 29/6/1 28/3/1 28/22/1
f 28/22/1 29/21/1 29/6/1
f 8/11/1 9/8/1 9/9/1
f 9/9/1 8/12/1 8/11/1
f 8/12/5 9/9/5 30/2/5
f 30/2/5 31/5/5 8/12/5
f 7/14/5 8/12/5 31/5/5
f 31/5/5 20/18/5 7/14/5
f 7/13/1 8/11/1 8/12/1
f 8/12/1 7/14/1 7/13/1
f 7/15/1 7/13/1 7/14/1
f 7/14/1 7/16/1 7/15/1
f 7/16/1 7/14/1 20/18/1
f 20/18/1 20/17/1 7/16/1
f 19/19/1 29/6/1 29/21/1
f 29/21/1 19/25/1 19/19/1
f 20/18/5 31/5/5 29/6/5
f 29/6/5 19/19/5 20/18/5
f 20/17/1 20/18/1 19/19/1
f 19/19/1 19/20/1 20/17/1
f 19/20/1 19/19/1 19/25/1
f 19/25/1 19/24/1 19/20/1
f 16/3/1 16/22/1 24/21/1
f 24/21/1 24/6/1 16/3/1
f 16/4/1 16/23/1 16/22/1
f 16/22/1 16/3/1 16/4/1
f 14/1/1 16/4/1 16/3/1
f 16/3/1 14/2/1 14/1/1
f 14/2/6 16/3/6 24/6/6
f 24/6/6 32/5/6 14/2/6
f 5/9/6 14/2/6 32/5/6
f 32/5/6 1/12/6 5/9/6
f 5/10/1 14/1/1 14/2/1
f 14/2/1 5/9/1 5/10/1
f 5/7/1 5/10/1 5/9/1
f 5/9/1 5/8/1 5/7/1
f 5/8/1 5/9/1 1/12/1
f 1/12/1 1/11/1 5/8/1
f 1/12/6 32/5/6 33/18/6
f 33/18/6 2/14/6 1/12/6
f 1/11/1 1/12/1 2/14/1
f 2/14/1 2/13/1 1/11/1
f 24/6/1 24/21/1 26/25/1
f 26/25/1 26/19/1 24/6/1
f 32/5/6 24/6/6 26/19/6
f 26/19/6 33/18/6 32/5/6
f 9/28/1 35/27/7 34/26/3
f 34/26/3 9/28/7 9/28/1
f 9/28/1 36/29/7 35/27/3
f 35/27/3 9/28/7 9/28/1
f 26/32/1 38/31/7 37/30/3
f 37/30/3 26/32/7 26/32/1
f 9/28/3 34/26/3 39/33/3
f 39/33/3 30/34/3 9/28/3
f 30/34/3 39/33/3 40/35/3
f 40/35/3 28/36/3 30/34/3
f 20/22/5 21/21/5 23/6/5
f 23/6/5 7/3/5 20/22/5
f 4/4/3 41/1/3 36/29/3
f 36/29/3 9/28/3 4/4/3
f 2/3/3 42/2/3 41/1/3
f 41/1/3 4/4/3 2/3/3
f 14/34/6 13/33/6 18/35/6
f 18/35/6 16/36/6 14/34/6
f 2/3/1 43/5/7 42/2/3
f 42/2/3 2/3/7 2/3/1
f 27/38/3 44/37/3 38/31/3
f 38/31/3 26/32/3 27/38/3
f 2/3/1 45/6/7 43/5/3
f 43/5/3 2/3/7 2/3/1
f 33/22/3 46/21/3 45/6/3
f 45/6/3 2/3/3 33/22/3
f 26/32/3 47/39/3 46/21/3
f 46/21/3 33/22/3 26/32/3
f 6/38/2 11/37/2 12/31/2
f 12/31/2 5/32/2 6/38/2
f 26/32/1 37/30/7 47/39/3
f 47/39/3 26/32/7 26/32/1
f 28/36/3 48/40/3 44/37/3
f 44/37/3 27/38/3 28/36/3
f 16/36/4 18/40/4 17/37/4
f 17/37/4 15/38/4 16/36/4
f 28/36/1 49/41/7 48/40/3
f 48/40/3 28/36/7 28/36/1
f 15/38/4 17/37/4 22/31/4
f 22/31/4 19/32/4 15/38/4
f 5/28/6 12/26/6 13/33/6
f 13/33/6 14/34/6 5/28/6
f 28/36/1 40/35/7 49/41/3
f 49/41/3 28/36/7 28/36/1
f 19/32/5 22/39/5 21/21/5
f 21/21/5 20/22/5 19/32/5
f 7/36/2 23/40/2 11/37/2
f 11/37/2 6/38/2 7/36/2
f 52/43/8 51/42/8 50/21/8
f 50/21/8 53/44/8 52/43/8
f 55/45/8 54/22/8 51/42/8
f 51/42/8 52/43/8 55/45/8
f 61/48/8 60/47/8 54/22/8
f 54/22/8 55/45/8 61/48/8
f 63/49/8 62/23/8 60/47/8
f 60/47/8 61/48/8 63/49/8
f 64/4/8 63/49/8 61/48/8
f 61/48/8 65/50/8 64/4/8
f 70/51/8 64/4/8 65/50/8
f 65/50/8 71/52/8 70/51/8
f 72/1/8 70/51/8 71/52/8
f 71/52/8 73/53/8 72/1/8
f 78/55/8 77/46/8 76/6/8
f 76/6/8 79/56/8 78/55/8
f 81/54/8 80/3/8 77/46/8
f 77/46/8 78/55/8 81/54/8
f 82/2/8 81/54/8 78/55/8
f 78/55/8 83/57/8 82/2/8
f 89/60/8 82/2/8 83/57/8
f 83/57/8 90/58/8 89/60/8
f 91/9/8 89/60/8 90/58/8
f 90/58/8 92/61/8 91/9/8
f 92/61/8 90/58/8 94/59/8
f 94/59/8 93/12/8 92/61/8
f 97/62/8 72/1/8 73/53/8
f 73/53/8 98/63/8 97/62/8
f 99/10/8 97/62/8 98/63/8
f 98/63/8 100/64/8 99/10/8
f 107/67/8 99/10/8 100/64/8
f 100/64/8 108/65/8 107/67/8
f 109/7/8 107/67/8 108/65/8
f 108/65/8 110/68/8 109/7/8
f 110/68/8 108/65/8 112/66/8
f 112/66/8 111/8/8 110/68/8
f 111/8/8 112/66/8 118/70/8
f 118/70/8 117/71/8 111/8/8
f 117/71/8 118/70/8 120/69/8
f 120/69/8 119/11/8 117/71/8
f 123/73/8 122/72/8 121/17/8
f 121/17/8 124/74/8 123/73/8
f 129/76/8 123/73/8 124/74/8
f 124/74/8 130/16/8 129/76/8
f 133/78/8 132/77/8 131/18/8
f 131/18/8 134/75/8 133/78/8
f 93/12/8 94/59/8 133/78/8
f 133/78/8 137/79/8 93/12/8
f 137/79/8 133/78/8 134/75/8
f 134/75/8 138/14/8 137/79/8
f 119/11/8 120/69/8 144/81/8
f 144/81/8 143/82/8 119/11/8
f 143/82/8 144/81/8 146/80/8
f 146/80/8 145/13/8 143/82/8
f 147/83/8 129/76/8 130/16/8
f 130/16/8 148/84/8 147/83/8
f 145/13/8 146/80/8 147/83/8
f 147/83/8 151/85/8 145/13/8
f 151/85/8 147/83/8 148/84/8
f 148/84/8 152/15/8 151/85/8
f 155/87/8 154/86/8 153/24/8
f 153/24/8 156/88/8 155/87/8
f 158/89/8 157/25/8 154/86/8
f 154/86/8 155/87/8 158/89/8
f 161/90/8 155/87/8 156/88/8
f 156/88/8 162/20/8 161/90/8
f 164/92/8 163/91/8 157/25/8
f 157/25/8 158/89/8 164/92/8
f 53/44/8 50/21/8 163/91/8
f 163/91/8 164/92/8 53/44/8
f 169/94/8 168/93/8 167/19/8
f 167/19/8 170/95/8 169/94/8
f 79/56/8 76/6/8 168/93/8
f 168/93/8 169/94/8 79/56/8
f 132/77/8 169/94/8 170/95/8
f 170/95/8 131/18/8 132/77/8
f 173/96/8 161/90/8 162/20/8
f 162/20/8 174/97/8 173/96/8
f 122/72/8 173/96/8 174/97/8
f 174/97/8 121/17/8 122/72/8
f 105/100/5 108/98/5 100/26/5
f 100/26/5 104/99/5 105/100/5
f 106/103/4 112/29/4 108/101/4
f 108/101/4 105/102/4 106/103/4
f 104/99/5 100/26/5 98/104/5
f 98/104/5 102/105/5 104/99/5
f 101/107/6 89/44/6 91/6/6
f 91/6/6 103/106/6 101/107/6
f 102/105/5 98/104/5 73/33/5
f 73/33/5 96/108/5 102/105/5
f 95/109/6 82/21/6 89/44/6
f 89/44/6 101/107/6 95/109/6
f 96/108/5 73/33/5 71/110/5
f 71/110/5 75/111/5 96/108/5
f 74/113/6 81/112/6 82/21/6
f 82/21/6 95/109/6 74/113/6
f 75/111/5 71/110/5 65/35/5
f 65/35/5 69/114/5 75/111/5
f 68/115/6 80/39/6 81/112/6
f 81/112/6 74/113/6 68/115/6
f 67/117/2 61/57/2 55/2/2
f 55/2/2 66/116/2 67/117/2
f 69/114/5 65/35/5 61/118/5
f 61/118/5 67/119/5 69/114/5
f 66/116/2 55/2/2 52/53/2
f 52/53/2 57/120/2 66/116/2
f 56/122/4 77/121/4 80/29/4
f 80/29/4 68/103/4 56/122/4
f 57/120/2 52/53/2 53/1/2
f 53/1/2 59/123/2 57/120/2
f 58/123/4 76/1/4 77/121/4
f 77/121/4 56/122/4 58/123/4
f 59/123/2 53/1/2 164/121/2
f 164/121/2 166/122/2 59/123/2
f 165/120/4 168/53/4 76/1/4
f 76/1/4 58/123/4 165/120/4
f 103/116/2 91/2/2 92/53/2
f 92/53/2 115/120/2 103/116/2
f 116/122/4 118/121/4 112/29/4
f 112/29/4 106/103/4 116/122/4
f 115/120/2 92/53/2 93/1/2
f 93/1/2 113/123/2 115/120/2
f 114/123/4 120/1/4 118/121/4
f 118/121/4 116/122/4 114/123/4
f 113/123/2 93/1/2 137/121/2
f 137/121/2 141/122/2 113/123/2
f 142/120/4 144/53/4 120/1/4
f 120/1/4 114/123/4 142/120/4
f 141/122/2 137/121/2 138/29/2
f 138/29/2 139/103/2 141/122/2
f 140/116/4 146/2/4 144/53/4
f 144/53/4 142/120/4 140/116/4
f 149/106/6 129/6/6 147/56/6
f 147/56/6 150/124/6 149/106/6
f 150/117/4 147/57/4 146/2/4
f 146/2/4 140/116/4 150/117/4
f 139/99/5 138/26/5 134/104/5
f 134/104/5 127/105/5 139/99/5
f 128/107/6 123/44/6 129/6/6
f 129/6/6 149/106/6 128/107/6
f 127/105/5 134/104/5 131/33/5
f 131/33/5 126/108/5 127/105/5
f 125/109/6 122/21/6 123/44/6
f 123/44/6 128/107/6 125/109/6
f 126/108/5 131/33/5 170/110/5
f 170/110/5 177/111/5 126/108/5
f 178/113/6 173/112/6 122/21/6
f 122/21/6 125/109/6 178/113/6
f 177/111/5 170/110/5 167/35/5
f 167/35/5 176/114/5 177/111/5
f 175/115/6 161/39/6 173/112/6
f 173/112/6 178/113/6 175/115/6
f 159/103/2 158/29/2 155/101/2
f 155/101/2 160/102/2 159/103/2
f 160/126/6 155/125/6 161/39/6
f 161/39/6 175/115/6 160/126/6
f 166/122/2 164/121/2 158/29/2
f 158/29/2 159/103/2 166/122/2
f 176/116/4 167/2/4 168/53/4
f 168/53/4 165/120/4 176/116/4
f 87/105/5 90/104/5 83/33/5
f 83/33/5 86/108/5 87/105/5
f 88/123/4 94/1/4 90/121/4
f 90/121/4 87/122/4 88/123/4
f 135/109/6 132/21/6 133/44/6
f 133/44/6 136/107/6 135/109/6
f 136/120/4 133/53/4 94/1/4
f 94/1/4 88/123/4 136/120/4
f 171/123/2 79/1/2 169/121/2
f 169/121/2 172/122/2 171/123/2
f 172/113/6 169/112/6 132/21/6
f 132/21/6 135/109/6 172/113/6
f 84/120/2 78/53/2 79/1/2
f 79/1/2 171/123/2 84/120/2
f 86/108/5 83/33/5 78/110/5
f 78/110/5 84/111/5 86/108/5

g SensorModel_1
usemtl Metal

